11
0.0
-Infinity
1.0
0.0
2.0
0.6931471805599453
3.0
1.0986122886681098
4.0
1.3862943611198906
5.0
1.6094379124341003
6.0
1.791759469228055
7.0
1.9459101490553132
8.0
2.0794415416798357
9.0
2.1972245773362196
10.0
2.302585092994046
